%YAML 1.1
%TAG !u! tag:unity3d.com,2011:
--- !u!114 &11400000
MonoBehaviour:
  m_ObjectHideFlags: 0
  m_CorrespondingSourceObject: {fileID: 0}
  m_PrefabInstance: {fileID: 0}
  m_PrefabAsset: {fileID: 0}
  m_GameObject: {fileID: 0}
  m_Enabled: 1
  m_EditorHideFlags: 0
  m_Script: {fileID: 11500000, guid: 910bcb715cd3344619df786cb0658efb, type: 3}
  m_Name: AgentGhost
  m_EditorClassIdentifier: 
  agentName: Ghost
  agentDescription: Ghost
  agentPrefab: {fileID: 203595874556411290, guid: 95b1368d772635c4f9ab27f2f016df58,
    type: 3}
