%YAML 1.1
%TAG !u! tag:unity3d.com,2011:
--- !u!114 &11400000
MonoBehaviour:
  m_ObjectHideFlags: 0
  m_CorrespondingSourceObject: {fileID: 0}
  m_PrefabInstance: {fileID: 0}
  m_PrefabAsset: {fileID: 0}
  m_GameObject: {fileID: 0}
  m_Enabled: 1
  m_EditorHideFlags: 0
  m_Script: {fileID: 11500000, guid: 6554e39c21ed34bfc8e93fd843503ba1, type: 3}
  m_Name: ElectricEnergy
  m_EditorClassIdentifier: 
  id: 4
  sequence: 4
  energyName: Electric
  energyDesc: Electric Energy
  energyForm: 4
  energyIcon: {fileID: 0}
  energyColour: {r: 0.01568625, g: 0.30483213, b: 0.99215686, a: 1}
  energyMaterial: {fileID: 2100000, guid: c7761c14baa8940cbb45561fb95d7f4e, type: 2}
