%YAML 1.1
%TAG !u! tag:unity3d.com,2011:
--- !u!114 &11400000
MonoBehaviour:
  m_ObjectHideFlags: 0
  m_CorrespondingSourceObject: {fileID: 0}
  m_PrefabInstance: {fileID: 0}
  m_PrefabAsset: {fileID: 0}
  m_GameObject: {fileID: 0}
  m_Enabled: 1
  m_EditorHideFlags: 0
  m_Script: {fileID: 11500000, guid: f7501bbf02d6a475e897f4d07ff3fdc1, type: 3}
  m_Name: LevelList
  m_EditorClassIdentifier: 
  levels:
  - id: 1
    name: Outer PCB
    description: Worm targets Processor!
    sceneName: Level1
  - id: 2
    name: Graphics Card
    description: Worm targets GPU!
    sceneName: Level2
  - id: 3
    name: Motherboard
    description: Worm targets CPU!
    sceneName: Level3
