%YAML 1.1
%TAG !u! tag:unity3d.com,2011:
--- !u!114 &11400000
MonoBehaviour:
  m_ObjectHideFlags: 0
  m_CorrespondingSourceObject: {fileID: 0}
  m_PrefabInstance: {fileID: 0}
  m_PrefabAsset: {fileID: 0}
  m_GameObject: {fileID: 0}
  m_Enabled: 1
  m_EditorHideFlags: 0
  m_Script: {fileID: 11500000, guid: 24e2352be0954e359a850a9d99215c6e, type: 3}
  m_Name: Slowdown2
  m_EditorClassIdentifier: 
  description: Slow Turret 2
  upgradeDescription: Slow Turret 2
  cost: 0
  sell: 0
  maxHealth: 0
  startingHealth: 0
  icon: {fileID: 21300000, guid: 53652022b1d444a5c9e9630488e44e13, type: 3}
